<svg version="1.1" class="svg-facebook" xmlns="http://www.w3.org/2000/svg" xmlns:xlink="http://www.w3.org/1999/xlink" x="0px" y="0px"
	 viewBox="0 0 12 26.7" enable-background="new 0 0 12 26.7" xml:space="preserve">
<path fill="#FFFFFF" d="M6,26.7H3V8.5C3,0.6,6.6,0,11.6,0v2.8C7.2,2.8,6,3.6,6,8.5V26.7z"/>
<rect y="8.7" fill="#FFFFFF" width="12" height="2"/>
</svg>
