<svg version="1.1" class="svg-instagram" xmlns="http://www.w3.org/2000/svg" xmlns:xlink="http://www.w3.org/1999/xlink" x="0px" y="0px"
	 viewBox="0 0 29.1 30" enable-background="new 0 0 29.1 30" xml:space="preserve">
<path fill="#FFFFFF" d="M22,30H6.4C2.6,30,0,26.7,0,21.9v-14C0,3.2,2.6,0,6.4,0H25v2H6.4C3.7,2,2,4.3,2,7.8v14C2,24.9,3.4,28,6.4,28
	H22c2.8,0,5-2.7,5-6.1V4h2v17.9C29,26.4,25.9,30,22,30z"/>
<path fill="#FFFFFF" d="M14.2,23.8c-4.9,0-8.9-4-8.9-8.9s4-8.9,8.9-8.9c4.9,0,8.9,4,8.9,8.9S19.1,23.8,14.2,23.8z M14.2,7.9
	c-3.8,0-6.9,3.1-6.9,6.9c0,3.8,3.1,6.9,6.9,6.9c3.8,0,6.9-3.1,6.9-6.9C21.1,11,18,7.9,14.2,7.9z"/>
<path fill="#FFFFFF" d="M24.6,9c-1.2,0-2.3-0.5-3.2-1.3s-1.3-2-1.3-3.2c0-1.2,0.5-2.3,1.3-3.2s2-1.3,3.2-1.3s2.3,0.5,3.2,1.3
	s1.3,2,1.3,3.2c0,1.2-0.5,2.3-1.3,3.2S25.8,9,24.6,9z M24.6,2c-0.7,0-1.3,0.3-1.8,0.7c-0.5,0.5-0.7,1.1-0.7,1.8
	c0,0.7,0.3,1.3,0.7,1.8c0.9,0.9,2.6,0.9,3.5,0c0.5-0.5,0.7-1.1,0.7-1.8c0-0.7-0.3-1.3-0.7-1.8C25.9,2.3,25.2,2,24.6,2z"/>
<rect x="1" y="15" fill="#FFFFFF" width="5" height="1"/>
<rect x="22" y="15" fill="#FFFFFF" width="6" height="1"/>
</svg>
