<?xml version="1.0" encoding="utf-8"?>
<!-- Generator: Adobe Illustrator 18.1.1, SVG Export Plug-In . SVG Version: 6.00 Build 0)  -->
<svg version="1.1" id="Layer_1" xmlns="http://www.w3.org/2000/svg" xmlns:xlink="http://www.w3.org/1999/xlink" x="0px" y="0px"
	 viewBox="0 0 33.7 43.4" enable-background="new 0 0 33.7 43.4" xml:space="preserve">
<g>
	<path fill="#EC5B9F" d="M28.7,4.9c6.6,6.6,6.6,17.2,0,23.8c-19.5,19.5-4.3,19.5-23.8,0c-6.6-6.6-6.6-17.2,0-23.8S22.2-1.6,28.7,4.9
		z"/>
</g>
<g>
	<g>
		<path fill="#FFFFFF" d="M20.1,24.7h-7.4c-2,0-4-1.3-4-3.4v-9.6h15v9.6C23.6,23.3,22.2,24.7,20.1,24.7z M10.6,13.5v7.4
			c0,1.3,1.3,2,2.6,2h6.3c1.3,0,2.2-0.8,2.2-2v-7.4H10.6z"/>
		<path fill="#FFFFFF" d="M23.2,20.8v-1.3c2.2,0,4-1.5,4-3.2c0-1.8-1.8-3.2-4-3.2l0.4-1.3c2.5,0,4.9,2,4.9,4.5S26.1,20.8,23.2,20.8z
			"/>
	</g>
	<g>
		<g>
			<path fill="#FFFFFF" d="M14.3,9.7c0-0.1,0-0.1,0-0.2c0.1-1.1,0.4-1.8,0.9-2.2c0.5-0.3,1-0.3,1.3-0.2l-0.2,0.7l0.1-0.4l-0.1,0.4
				c0,0-0.3-0.1-0.6,0.1c-0.3,0.2-0.5,0.8-0.6,1.6c0,1.1,0.4,1.4,1.1,1.8c0.6,0.4,1.4,0.8,1.7,2c0.2,0.8,0.1,1.4-0.3,1.9
				c-0.7,0.9-1.9,0.9-2,0.9l0-0.7c0,0,0.9-0.1,1.4-0.7c0.2-0.3,0.3-0.8,0.2-1.3c-0.2-0.9-0.7-1.2-1.3-1.5
				C15.1,11.6,14.3,11.2,14.3,9.7z"/>
		</g>
	</g>
</g>
</svg>
