<svg version="1.1" class="svg-twitter" xmlns="http://www.w3.org/2000/svg" xmlns:xlink="http://www.w3.org/1999/xlink" x="0px" y="0px"
	 viewBox="0 0 33.1 29.9" enable-background="new 0 0 33.1 29.9" xml:space="preserve">
<g>
	<path fill="#FFFFFF" d="M13.7,29.9c-3.5,0-6.9-1.1-9.7-3.2l-2.4-1.8l3,0c0,0,2.4,0,4.8-0.4c-1.9-0.6-4.1-1.8-5.6-4.2L3,19.1
		l2.8-0.6c-2-1.4-4.6-4-5.4-9.1L0,7.3l1.8,1c0.1,0,5.2,2.8,9.5,1.9V7.7C11.3,3.5,14.8,0,19,0c1.9,0,3.7,0.7,5.1,1.9l-1.3,1.5
		C21.8,2.5,20.4,2,19,2c-3.1,0-5.7,2.6-5.7,5.7v4L12.6,12C9,13.1,5,11.9,2.7,11c1.7,5.6,6.2,6.8,6.2,6.8l4.1,1l-6.7,1.5
		c2.8,3,7.2,2.7,7.2,2.7l4-0.2l-3.4,2.1c-1.7,1-4.3,1.5-6.3,1.8c1.8,0.8,3.8,1.2,5.8,1.2c7.8,0,14.1-6.3,14.1-14
		c0-1.9-0.4-3.8-1.2-5.6l1.8-0.8c0.9,2,1.4,4.2,1.4,6.4C29.7,22.8,22.5,29.9,13.7,29.9z"/>
	<path fill="#FFFFFF" d="M24.5,5.1C24,4.5,23.5,4,22.9,3.4l1.3-1.5c0.7,0.6,1.3,1.3,1.9,1.9L24.5,5.1z"/>
	<polygon fill="#FFFFFF" points="26.9,9.2 26.4,8.3 30,6.6 26.8,5.9 27.7,3 24.6,5.2 24,4.4 29.6,0.5 28.1,5.2 33.1,6.3 	"/>
</g>
</svg>
